<?xml version="1.0" ?>
<robot
  name="bin">
  <link
    name="bin">
    <visual>
      <origin xyz="0. 0. 0." rpy="0. 0. 0." />
      <geometry>
        <mesh filename="package://ai_environment/meshes/bin.stl" />
      </geometry>
      <material name="metal">
        <color rgba="0.4 0.4 0.4 1" />
      </material>
    </visual>
    <collision>
      <origin xyz="0. 0. 0." rpy="0. 0. 0." />
      <geometry>
        <mesh filename="package://ai_environment/meshes/bin.stl" />
      </geometry>
    </collision>
  </link>
</robot>
