<?xml version="1.0" ?>
<robot
  name="cleanser">
  <link
    name="cleanser_top">
    <visual>
      <origin xyz="0.0 0.0 0.0" rpy="0 0 1.5708" />
      <geometry>
        <mesh filename="package://ai_environment/meshes/cleanser.stl" />
      </geometry>
      <material name="metal">
        <color rgba="0.4 0.4 0.4 1" />
      </material>
    </visual>
    <collision>
      <origin xyz="0.0 0.0 0.0" rpy="0 0 1.5708" />
      <geometry>
        <mesh filename="package://ai_environment/meshes/cleanser.stl" />
      </geometry>
    </collision>
  </link>
</robot>
