<?xml version="1.0" ?>
<robot
  name="pitcher_base">
  <link
    name="pitcher">
    <visual>
      <origin xyz="-0.075 0.005 -0.02" rpy="0 0 -0.8" />
      <geometry>
        <mesh filename="package://ai_environment/meshes/pitcher_base.stl" />
      </geometry>
      <material name="yellow">
        <color rgba="255 255 0 1" />
      </material>
    </visual>
    <collision>
      <origin xyz="-0.075 0.005 -0.02" rpy="0 0 -0.8" />
      <geometry>
        <mesh filename="package://ai_environment/meshes/pitcher_base.stl" />
      </geometry>
    </collision>
  </link>
</robot>
